04_clean
…
metadata <- metadata |> 
  select(-subjectID)

We see that the classification column is just another way of classifying the disease column with:

n (no disease) = ngt (normal glucose tolerance)

impaired_glucose_tolerance = igt

t2d = t2d (type 2 diabetes)

metadata |> 
  select(disease, classification)

# A tibble: 145 × 2
   disease                    classification
   <chr>                      <chr>         
 1 impaired_glucose_tolerance igt           
 2 n                          ngt           
 3 n                          ngt           
 4 n                          ngt           
 5 n                          ngt           
 6 impaired_glucose_tolerance igt           
 7 n                          ngt           
 8 n                          ngt           
 9 n                          ngt           
10 impaired_glucose_tolerance igt           
# ℹ 135 more rows
…
metadata <- metadata |> 
  filter(!is.na(subjectID))

We find that in the t2dmeta_long there are 19 samples are do not have any subjectID and are also missing a lot of metadata, this coincide with the hypothesis of these being the product of some error during the CSV production as by removing them we are able to perfectly match the number of samples expected for the t2d dataset (as found in during data selection).

Now we investigate the remaining data columns having NAs.

metadata |> 
  filter(is.na(gender))

# A tibble: 423 × 10
   dataset_name          sampleID subjectID bodysite disease gender country
   <chr>                 <chr>    <chr>     <chr>    <chr>   <chr>  <chr>  
 1 Chatelier_gut_obesity MH0002   mh0002    stool    n       <NA>   denmark
 2 Chatelier_gut_obesity MH0003   mh0003    stool    obesity <NA>   denmark
 3 Chatelier_gut_obesity MH0006   mh0006    stool    leaness <NA>   denmark
 4 Chatelier_gut_obesity MH0009   mh0009    stool    n       <NA>   denmark
 5 Chatelier_gut_obesity MH0011   mh0011    stool    leaness <NA>   denmark
 6 Chatelier_gut_obesity MH0012   mh0012    stool    obesity <NA>   denmark
 7 Chatelier_gut_obesity MH0014   mh0014    stool    obesity <NA>   denmark
 8 Chatelier_gut_obesity MH0016   mh0016    stool    obesity <NA>   denmark
 9 Chatelier_gut_obesity MH0020   mh0020    stool    obesity <NA>   denmark
10 Chatelier_gut_obesity MH0021   mh0021    stool    n       <NA>   denmark
# ℹ 413 more rows
# ℹ 3 more variables: sequencing_technology <chr>, pubmedid <dbl>,
#   `#SampleID` <chr>

For gender we see that the samples not having a value belong to the WT2D or to the Chatelier_gut_obesity datasets. For the former we can verify by looking at the original paper that all the samples are taken from females, unfortunately the data is not recorded for the latter.

metadata <- metadata |> 
  mutate(gender = ifelse(dataset_name == "WT2D",
                         "female", gender))

Moving on to the country column

metadata |> 
  filter(is.na(country))

# A tibble: 219 × 10
   dataset_name sampleID subjectID bodysite         disease gender country
   <chr>        <chr>    <chr>     <chr>            <chr>   <chr>  <chr>  
 1 hmpii        G18095   160603188 stool            n       male   <NA>   
 2 hmpii        G18096   160380657 stool            n       male   <NA>   
 3 hmpii        G18097   160380657 tongue_dorsum    n       male   <NA>   
 4 hmpii        G18098   160380657 stool            n       male   <NA>   
 5 hmpii        G18099   160319967 posterior_fornix n       female <NA>   
 6 hmpii        G18100   160421117 stool            n       male   <NA>   
 7 hmpii        G18101   160421117 stool            n       male   <NA>   
 8 hmpii        G18102   160582958 stool            n       female <NA>   
 9 hmpii        G18103   160178356 stool            n       male   <NA>   
10 hmpii        G18104   160947100 stool            n       male   <NA>   
# ℹ 209 more rows
# ℹ 3 more variables: sequencing_technology <chr>, pubmedid <dbl>,
#   `#SampleID` <chr>
…
