analysis_metadata
…
We group the data according to the type of data point, and each data point gets its own table by nesting. Then, the data is ungrouped again.

dataset_subsection_long_nested <- dataset_subsection_long |>
  group_by(data_point) |> 
  nest() |> 
  ungroup()

dataset_subsection_long_nested

# A tibble: 21 × 2
   data_point       data              
   <chr>            <list>            
 1 age              <tibble [145 × 2]>
 2 bmi              <tibble [145 × 2]>
 3 hdl              <tibble [145 × 2]>
 4 ldl              <tibble [145 × 2]>
 5 hdl_to_ldl_ratio <tibble [145 × 2]>
 6 gad-antibodies   <tibble [145 × 2]>
 7 whr              <tibble [145 × 2]>
 8 wc               <tibble [145 × 2]>
 9 cholesterol      <tibble [145 × 2]>
10 triglycerides    <tibble [145 × 2]>
# ℹ 11 more rows
Now we set up a linear model for each metadata variable.

dataset_subsection_aug_long_nested <- dataset_subsection_long_nested |> 
  group_by(data_point) |> 
  mutate(model_object = map(.x = data,
                   .f = ~lm(formula = value ~ is_diseased,
                            data = .x))) |> 
  mutate(model_object_tidy = map(.x = model_object,
                                 .f = ~tidy(x = .x,
                                            conf.int = TRUE,
                                            conf.level = 0.95)))
  
dataset_subsection_aug_long_nested

# A tibble: 21 × 4
# Groups:   data_point [21]
   data_point       data               model_object model_object_tidy
   <chr>            <list>             <list>       <list>           
 1 age              <tibble [145 × 2]> <lm>         <tibble [2 × 7]> 
 2 bmi              <tibble [145 × 2]> <lm>         <tibble [2 × 7]> 
 3 hdl              <tibble [145 × 2]> <lm>         <tibble [2 × 7]> 
 4 ldl              <tibble [145 × 2]> <lm>         <tibble [2 × 7]> 
 5 hdl_to_ldl_ratio <tibble [145 × 2]> <lm>         <tibble [2 × 7]> 
 6 gad-antibodies   <tibble [145 × 2]> <lm>         <tibble [2 × 7]> 
 7 whr              <tibble [145 × 2]> <lm>         <tibble [2 × 7]> 
 8 wc               <tibble [145 × 2]> <lm>         <tibble [2 × 7]> 
 9 cholesterol      <tibble [145 × 2]> <lm>         <tibble [2 × 7]> 
10 triglycerides    <tibble [145 × 2]> <lm>         <tibble [2 × 7]> 
# ℹ 11 more rows
…
[[1]]
# A tibble: 2 × 7
  term        estimate std.error statistic  p.value conf.low conf.high
  <chr>          <dbl>     <dbl>     <dbl>    <dbl>    <dbl>     <dbl>
1 (Intercept)    25.8      0.684     37.7  3.98e-76   24.4       27.1 
2 is_diseased     1.89     0.816      2.32 2.17e- 2    0.281      3.51

We then unnest the model so that we can access the information about the model.

dataset_subsection_estimates <- dataset_subsection_aug_long_nested |> 
  unnest(model_object_tidy)
dataset_subsection_estimates

# A tibble: 42 × 10
# Groups:   data_point [21]
   data_point data     model_object term  estimate std.error statistic   p.value
   <chr>      <list>   <list>       <chr>    <dbl>     <dbl>     <dbl>     <dbl>
 1 age        <tibble> <lm>         (Int… 70.3        0.109   648.     7.34e-250
 2 age        <tibble> <lm>         is_d…  0.162      0.129     1.25   2.13e-  1
 3 bmi        <tibble> <lm>         (Int… 25.8        0.684    37.7    3.98e- 76
 4 bmi        <tibble> <lm>         is_d…  1.89       0.816     2.32   2.17e-  2
 5 hdl        <tibble> <lm>         (Int…  1.96       0.0778   25.2    1.54e- 54
 6 hdl        <tibble> <lm>         is_d… -0.261      0.0928   -2.81   5.68e-  3
 7 ldl        <tibble> <lm>         (Int…  3.30       0.140    23.5    5.04e- 51
 8 ldl        <tibble> <lm>         is_d… -0.310      0.167    -1.86   6.56e-  2
 9 hdl_to_ld… <tibble> <lm>         (Int…  0.650      0.0501   13.0    6.69e- 26
10 hdl_to_ld… <tibble> <lm>         is_d… -0.00447    0.0598   -0.0747 9.41e-  1
# ℹ 32 more rows
# ℹ 2 more variables: conf.low <dbl>, conf.high <dbl>

dataset_subsection_estimates <- dataset_subsection_estimates |> 
  filter(term == "is_diseased") |> 
  select(data_point, p.value, estimate, conf.low, conf.high) |> 
  ungroup()
dataset_subsection_estimates

# A tibble: 21 × 5
   data_point         p.value estimate conf.low conf.high
   <chr>                <dbl>    <dbl>    <dbl>     <dbl>
 1 age              0.213      0.162    -0.0938    0.418 
 2 bmi              0.0217     1.89      0.281     3.51  
 3 hdl              0.00568   -0.261    -0.444    -0.0772
 4 ldl              0.0656    -0.310    -0.641     0.0202
 5 hdl_to_ldl_ratio 0.941     -0.00447  -0.123     0.114 
 6 gad-antibodies   0.432      0.673    -1.02      2.36  
 7 whr              0.00188    0.0330    0.0124    0.0536
 8 wc               0.0000358  7.48      4.01     10.9   
 9 cholesterol      0.0241    -0.404    -0.755    -0.0537
10 triglycerides    0.0105     0.372     0.0884    0.657 
# ℹ 11 more rows
…
