analysis_abundance
…
Then we group the data by bacteria and nest it. After that, we ungroup it. By doing so, we obtain another tibble, which is a table for each bacterium.

dataset_long_nested <- dataset_long|> 
  group_by(bacteria) |> 
  nest() |> 
  ungroup()

dataset_long_nested

# A tibble: 191 × 2
   bacteria                          data              
   <chr>                             <list>            
 1 s_Methanobrevibacter_smithii      <tibble [96 × 30]>
 2 s_Methanobrevibacter_unclassified <tibble [96 × 30]>
 3 s_Methanosphaera_stadtmanae       <tibble [96 × 30]>
 4 s_Actinomyces_graevenitzii        <tibble [96 × 30]>
 5 s_Actinomyces_odontolyticus       <tibble [96 × 30]>
 6 s_Rothia_mucilaginosa             <tibble [96 × 30]>
 7 s_Rothia_unclassified             <tibble [96 × 30]>
 8 s_Bifidobacterium_adolescentis    <tibble [96 × 30]>
 9 s_Bifidobacterium_bifidum         <tibble [96 × 30]>
10 s_Bifidobacterium_catenulatum     <tibble [96 × 30]>
# ℹ 181 more rows

Here we see how the data can be pulled out for a choosen bacterium.

#How to get the data
dataset_long_nested |> 
  filter(bacteria == "s_Bacteroides_caccae") |> 
  pull(data)

[[1]]
# A tibble: 96 × 30
   sampleID glucose_tolerance is_diseased   age country   bmi BMI_class      hdl
   <chr>    <chr>                   <dbl> <dbl> <chr>   <dbl> <chr>        <dbl>
 1 S118     normal                      0  70.0 sweden   32.7 Obese         1.35
 2 S121     normal                      0  69.3 sweden   29.7 Overweight    2.82
 3 S126     normal                      0  69.5 germany  18.6 Normal weig…  2.72
 4 S127     normal                      0  70.0 sweden   26.6 Overweight    1.4 
 5 S137     normal                      0  70.0 sweden   23.2 Normal weig…  2.21
 6 S141     normal                      0  69.4 sweden   25.1 Overweight    2.56
 7 S143     normal                      0  69.5 sweden   28.8 Overweight    2.27
 8 S146     normal                      0  69.5 sweden   36.9 Obese         1.37
 9 S153     normal                      0  70.2 germany  21.6 Normal weig…  2.53
10 S155     normal                      0  70.3 france   21.5 Normal weig…  2.35
# ℹ 86 more rows
# ℹ 22 more variables: ldl <dbl>, hdl_to_ldl_ratio <dbl>,
#   `gad-antibodies` <dbl>, whr <dbl>, wc <dbl>, cholesterol <dbl>,
#   triglycerides <dbl>, creatinine <dbl>, `y-gt` <dbl>, fasting_glucose <chr>,
#   fasting_insulin <dbl>, `HOMA-IR` <chr>, HOMA_category <chr>, hba1c <dbl>,
#   adiponectin <chr>, leptin <chr>, hscrp <dbl>, `c-peptide` <dbl>,
#   tnfa <dbl>, statins <chr>, insulin <chr>, abundance <dbl>
…
We unnest the model object so we can access the data and values inside the model.

dataset_estimates <- dataset_long_nested |> 
  unnest(model_object_tidy)
dataset_estimates

<<<<<<< HEAD

# A tibble: 382 × 10
# Groups:   bacteria [191]
   bacteria     data     model_object term  estimate std.error statistic p.value
   <chr>        <list>   <list>       <chr>    <dbl>     <dbl>     <dbl>   <dbl>
 1 s_Methanobr… <tibble> <lm>         (Int…    6.09      1.06      5.73  1.22e-7
 2 s_Methanobr… <tibble> <lm>         is_d…   -1.66      1.43     -1.16  2.49e-1
 3 s_Methanobr… <tibble> <lm>         (Int…   -1.38      0.640    -2.16  3.35e-2
 4 s_Methanobr… <tibble> <lm>         is_d…    1.17      0.862     1.36  1.76e-1
 5 s_Methanosp… <tibble> <lm>         (Int…   -1.17      0.577    -2.02  4.58e-2
 6 s_Methanosp… <tibble> <lm>         is_d…   -0.669     0.777    -0.861 3.92e-1
 7 s_Actinomyc… <tibble> <lm>         (Int…   -0.387     0.585    -0.661 5.10e-1
 8 s_Actinomyc… <tibble> <lm>         is_d…   -0.562     0.788    -0.714 4.77e-1
 9 s_Actinomyc… <tibble> <lm>         (Int…    0.314     0.679     0.462 6.45e-1
10 s_Actinomyc… <tibble> <lm>         is_d…    0.558     0.914     0.610 5.43e-1
# ℹ 372 more rows
# ℹ 2 more variables: conf.low <dbl>, conf.high <dbl>
…
Then we group the data by bacteria and nest it. After that, we ungroup it. By doing so, we obtain another tibble, which is a table for each bacterium.

dataset_long_nested <- dataset_long|> 
  group_by(backteria) |> 
  nest() |> 
  ungroup()

dataset_long_nested

>>>>>>> 699999d22ef3924c75c3e00c6bd1c63a41c81270

# A tibble: 92 × 2
   backteria                      data              
   <chr>                          <list>            
 1 s_Methanobrevibacter_smithii   <tibble [96 × 30]>
 2 s_Actinomyces_odontolyticus    <tibble [96 × 30]>
 3 s_Rothia_mucilaginosa          <tibble [96 × 30]>
 4 s_Bifidobacterium_adolescentis <tibble [96 × 30]>
 5 s_Bifidobacterium_longum       <tibble [96 × 30]>
 6 s_Adlercreutzia_equolifaciens  <tibble [96 × 30]>
 7 s_Collinsella_aerofaciens      <tibble [96 × 30]>
 8 s_Eggerthella_lenta            <tibble [96 × 30]>
 9 s_Gordonibacter_pamelaeae      <tibble [96 × 30]>
10 s_Bacteroides_caccae           <tibble [96 × 30]>
# ℹ 82 more rows
…
=======

#How to get the data
dataset_long_nested |> 
  filter(backteria == "s_Bacteroides_caccae") |> 
  pull(data)

>>>>>>> 699999d22ef3924c75c3e00c6bd1c63a41c81270

[[1]]
# A tibble: 96 × 30
   sampleID glucose_tolerance is_diseased   age country   bmi BMI_class      hdl
   <chr>    <chr>                   <dbl> <dbl> <chr>   <dbl> <chr>        <dbl>
 1 S118     normal                      0  70.0 sweden   32.7 Obese         1.35
 2 S121     normal                      0  69.3 sweden   29.7 Overweight    2.82
 3 S126     normal                      0  69.5 germany  18.6 Normal weig…  2.72
 4 S127     normal                      0  70.0 sweden   26.6 Overweight    1.4 
 5 S137     normal                      0  70.0 sweden   23.2 Normal weig…  2.21
 6 S141     normal                      0  69.4 sweden   25.1 Overweight    2.56
 7 S143     normal                      0  69.5 sweden   28.8 Overweight    2.27
 8 S146     normal                      0  69.5 sweden   36.9 Obese         1.37
 9 S153     normal                      0  70.2 germany  21.6 Normal weig…  2.53
10 S155     normal                      0  70.3 france   21.5 Normal weig…  2.35
# ℹ 86 more rows
# ℹ 22 more variables: ldl <dbl>, hdl_to_ldl_ratio <dbl>,
#   `gad-antibodies` <dbl>, whr <dbl>, wc <dbl>, cholesterol <dbl>,
#   triglycerides <dbl>, creatinine <dbl>, `y-gt` <dbl>, fasting_glucose <chr>,
#   fasting_insulin <dbl>, `HOMA-IR` <chr>, HOMA_category <chr>, hba1c <dbl>,
#   adiponectin <chr>, leptin <chr>, hscrp <dbl>, `c-peptide` <dbl>,
#   tnfa <dbl>, statins <chr>, insulin <chr>, abundance <dbl>
…
<<<<<<< HEAD

dataset_estimates <- dataset_long_nested |> 
  unnest(model_object_tidy)
dataset_estimates

=======

dataset_estimates <- dataset_long_nested |> 
  unnest(model_object_tidy)
dataset_estimates

>>>>>>> 699999d22ef3924c75c3e00c6bd1c63a41c81270

# A tibble: 184 × 10
# Groups:   backteria [92]
   backteria    data     model_object term  estimate std.error statistic p.value
   <chr>        <list>   <list>       <chr>    <dbl>     <dbl>     <dbl>   <dbl>
 1 s_Methanobr… <tibble> <lm>         (Int…  2.09e+0   0.450       4.64  1.11e-5
 2 s_Methanobr… <tibble> <lm>         is_d… -9.15e-1   0.605      -1.51  1.34e-1
 3 s_Actinomyc… <tibble> <lm>         (Int…  5.65e-3   0.00189     2.99  3.57e-3
 4 s_Actinomyc… <tibble> <lm>         is_d…  8.18e-4   0.00254     0.322 7.48e-1
 5 s_Rothia_mu… <tibble> <lm>         (Int…  5.43e-3   0.0173      0.314 7.54e-1
 6 s_Rothia_mu… <tibble> <lm>         is_d…  2.79e-2   0.0233      1.20  2.34e-1
 7 s_Bifidobac… <tibble> <lm>         (Int…  2.24e+0   0.674       3.32  1.28e-3
 8 s_Bifidobac… <tibble> <lm>         is_d…  2.22e-1   0.907       0.244 8.07e-1
 9 s_Bifidobac… <tibble> <lm>         (Int…  1.32e+0   0.239       5.51  3.11e-7
10 s_Bifidobac… <tibble> <lm>         is_d…  1.49e-1   0.322       0.463 6.44e-1
# ℹ 174 more rows
# ℹ 2 more variables: conf.low <dbl>, conf.high <dbl>
…
